IPJ - Datajournalisme
…
---

#### Filter 2 : sélection fine avec stringr

Des fonctions dîtes "helpers" permettent de réaliser des tests plus fins.

Le package `stringr` offre plusieurs fonction de test. `str_detect()` permet par exemple de vérifier de manière partielle une chaîne de caractère et, ainsi, de récupérer les valeurs contenant une certaine expression :

```r
filter(prenoms, str_detect(PRENOM,"ë"))
```

```
## # A tibble: 1,885 x 7
##    CODE_INSEE COMMUNE ANNEE SEXE  PRENOM    NOMBRE `ANNEE (DATE)`
##         <dbl> <chr>   <dbl> <chr> <chr>      <dbl>          <dbl>
##  1      45234 ORLEANS  2019 M     Maël          16           2019
##  2      45234 ORLEANS  2019 M     Raphaël       13           2019
##  3      45234 ORLEANS  2019 M     Nathanaël      6           2019
##  4      45234 ORLEANS  2019 F     Maëlys         3           2019
##  5      45234 ORLEANS  2019 F     Abigaëlle      2           2019
##  6      45234 ORLEANS  2019 F     Maëline        2           2019
##  7      45234 ORLEANS  2019 F     Raphaëlle      2           2019
##  8      45234 ORLEANS  2019 M     Tymaë          1           2019
##  9      45234 ORLEANS  2019 F     Anaë           1           2019
## 10      45234 ORLEANS  2019 M     Azaël          1           2019
## # … with 1,875 more rows
```
…
### Aparté : les opérateurs

Plusieurs conditions peuvent être cumulées dans un filtre suivant diverses modalités.

Pour cela, R propose plusieurs opérateurs :
* `&` (espérluette, se lit "*and*") : pour combiner deux conditions de façon stricte (l'une et l'autre doivent être vraies) ;
* `|` (pipe, se lit "*or*") : pour deux conditions mutuellement exclusive, l'une ou l'autre doit être vraie mais pas les deux ;
* `!` (se lit "*not*") : pour nier une condition (pratique pour formuler "tout sauf ...").

```r
filter(prenoms,NOMBRE > 130 | SEXE == "M") # à comparer avec le 2è filtre de la 1ère slide sur la fonction filter()
```

```
## # A tibble: 37,814 x 7
##    CODE_INSEE COMMUNE ANNEE SEXE  PRENOM  NOMBRE `ANNEE (DATE)`
##         <dbl> <chr>   <dbl> <chr> <chr>    <dbl>          <dbl>
##  1      45234 ORLEANS  2019 M     Gabriel     26           2019
##  2      45234 ORLEANS  2019 M     Noé         22           2019
##  3      45234 ORLEANS  2019 M     Hugo        20           2019
##  4      45234 ORLEANS  2019 M     Maël        16           2019
##  5      45234 ORLEANS  2019 M     Gabin       15           2019
##  6      45234 ORLEANS  2019 M     Mathéo      14           2019
##  7      45234 ORLEANS  2019 M     Théo        14           2019
##  8      45234 ORLEANS  2019 M     Ibrahim     13           2019
##  9      45234 ORLEANS  2019 M     Raphaël     13           2019
## 10      45234 ORLEANS  2019 M     Antoine     12           2019
## # … with 37,804 more rows
```

---

### Aparté : les opérateurs 2

**Attention** : les opérateurs `&` et `|` doivent être placé entre deux tests, pas à l'intérieur d'un des tests. L'opérateur `!` doit être placé avant le test entre parenthèse.

```r
filter(prenoms,!(str_detect(PRENOM,"e")))
```

```
## # A tibble: 39,101 x 7
##    CODE_INSEE COMMUNE ANNEE SEXE  PRENOM  NOMBRE `ANNEE (DATE)`
##         <dbl> <chr>   <dbl> <chr> <chr>    <dbl>          <dbl>
##  1      45234 ORLEANS  2019 M     Noé         22           2019
##  2      45234 ORLEANS  2019 M     Hugo        20           2019
##  3      45234 ORLEANS  2019 F     Lina        18           2019
##  4      45234 ORLEANS  2019 M     Maël        16           2019
##  5      45234 ORLEANS  2019 M     Gabin       15           2019
##  6      45234 ORLEANS  2019 M     Mathéo      14           2019
##  7      45234 ORLEANS  2019 M     Théo        14           2019
##  8      45234 ORLEANS  2019 M     Ibrahim     13           2019
##  9      45234 ORLEANS  2019 M     Raphaël     13           2019
## 10      45234 ORLEANS  2019 M     Aaron       12           2019
## # … with 39,091 more rows
```

---

### Aparté : l'opérateur %in%

En complément des opérateurs logiques usuels, le `tidyverse` ajoute un opérateur très pratique : le `%in%` qui permet d'établir une égalité non pas avec une valeur mais avec n'importe laquelle des valeurs contenues dans un vecteur.

```r
filter(prenoms, PRENOM %in% c("Yannick","Yanick","Yanik"))
```

```
## # A tibble: 94 x 7
##    CODE_INSEE COMMUNE ANNEE SEXE  PRENOM  NOMBRE `ANNEE (DATE)`
##         <dbl> <chr>   <dbl> <chr> <chr>    <dbl>          <dbl>
##  1      45234 ORLEANS  2016 M     Yannick      1           2016
##  2      45234 ORLEANS  2006 M     Yannick      1           2006
##  3      45234 ORLEANS  1997 M     Yannick      1           1997
##  4      45234 ORLEANS  1992 M     Yannick      1           1992
##  5      45234 ORLEANS  1991 M     Yannick      2           1991
##  6      45234 ORLEANS  2011 M     Yannick      3           2011
##  7      45234 ORLEANS  1999 M     Yanick       1           1999
##  8      45234 ORLEANS  1986 M     Yannick      2           1986
##  9      45234 ORLEANS  1985 M     Yannick      6           1985
## 10      45234 ORLEANS  1979 M     Yannick     13           1979
## # … with 84 more rows
```
…
---

#### Distinct pour les valeurs uniques

```r
distinct(p, ANNEE)
```

```
## # A tibble: 92 x 1
##    ANNEE
##    <dbl>
##  1  2019
##  2  2018
##  3  2017
##  4  2016
##  5  2015
##  6  2010
##  7  2009
##  8  2008
##  9  2007
## 10  2006
## # … with 82 more rows
```
…
```r
top_n(p,-5,NOMBRE) # qui marche aussi en "bottom_n"
```

```
## # A tibble: 50,165 x 4
##    ANNEE SEXE  PRENOM    NOMBRE
##    <dbl> <chr> <chr>      <dbl>
##  1  2019 M     Diadié         1
##  2  2019 M     Edaiin         1
##  3  2019 M     Sebastian      1
##  4  2019 F     Elia           1
##  5  2019 F     Raquel         1
##  6  2019 M     Kôme           1
##  7  2019 M     Mantas         1
##  8  2019 F     Mylana         1
##  9  2019 M     Tymaë          1
## 10  2019 F     Jihane         1
## # … with 50,155 more rows
```
…
Les fonctions `group_by` et `summarise` fonctionne en tandem :
* `group_by` sert à constituer des groupes suivant les valeurs des variables au sein d'une structure de données ;
* `summarise` permet de créer des variables de synthèse sur la base des observations ainsi "groupées".

```r
# je me concentre ici sur les prénoms masculins
p %>% filter(SEXE == "M") %>% 
  group_by(ANNEE) %>%         # je groupe par année
  summarise(n = n()) %>%      # je compte le nombre d'obs
  arrange(desc(n))            # je tri par n
```

```
## # A tibble: 92 x 2
##    ANNEE     n
##    <dbl> <int>
##  1  2018  1077
##  2  2016  1068
##  3  2017  1046
##  4  2015   987
##  5  2013   979
##  6  2014   968
##  7  2012   948
##  8  2011   942
##  9  2010   919
## 10  2019   918
## # … with 82 more rows
```
…
#### Group_by et summarise 2

Il est possible de grouper par plusieurs variables :

```r
# nous allons nous intéresser aux prénoms qui commencent par un K
p %>% filter(str_detect(PRENOM, "^K")) %>% 
  group_by(ANNEE,SEXE) %>% # nous groupons ensuite par année et sexe
  # et faisons la somme des enfants nommés ainsi
  summarise(effectif = sum(NOMBRE)) %>%
  arrange(desc(ANNEE))
```

```
## # A tibble: 136 x 3
## # Groups:   ANNEE [73]
##    ANNEE SEXE  effectif
##    <dbl> <chr>    <dbl>
##  1  2019 F           70
##  2  2019 M           73
##  3  2018 F           66
##  4  2018 M           77
##  5  2017 F           72
##  6  2017 M           68
##  7  2016 F           63
##  8  2016 M           66
##  9  2015 F           71
## 10  2015 M           63
## # … with 126 more rows
```
…
